timestamp, core_0_frequency
1.000000e-03, 2660
2.000000e-03, 2660
3.000000e-03, 2660
4.000000e-03, 2660
5.000000e-03, 2660
6.000000e-03, 2660
7.000000e-03, 2660
8.000000e-03, 2660
9.000000e-03, 2660
1.000000e-02, 2660
1.100000e-02, 2660
1.200000e-02, 2660
1.300000e-02, 2660
1.400000e-02, 2660
1.500000e-02, 2660
1.600000e-02, 2660
1.700000e-02, 2660
1.800000e-02, 2660
1.900000e-02, 2660
2.000000e-02, 2660
2.100000e-02, 2660
2.200000e-02, 2660
2.300000e-02, 2660
2.400000e-02, 2660
2.500000e-02, 2660
2.600000e-02, 2660
2.700000e-02, 2660
2.800000e-02, 2660
2.900000e-02, 2660
3.000000e-02, 2660
3.100000e-02, 2660
3.200000e-02, 2660
3.300000e-02, 2660
3.400000e-02, 2660
3.500000e-02, 2660
3.600000e-02, 2660
3.700000e-02, 2660
3.800000e-02, 2660
3.900000e-02, 2660
4.000000e-02, 2660
4.100000e-02, 2660
4.200000e-02, 2660
4.300000e-02, 2660
4.400000e-02, 2660
4.500000e-02, 2660
4.600000e-02, 100
4.700000e-02, 100
4.800000e-02, 100
4.900000e-02, 100
5.000000e-02, 100
5.100000e-02, 100
5.200000e-02, 100
5.300000e-02, 100
5.400000e-02, 100
5.500000e-02, 100
5.600000e-02, 100
5.700000e-02, 100
5.800000e-02, 100
5.900000e-02, 100
6.000000e-02, 100
6.100000e-02, 100
6.200000e-02, 100
6.300000e-02, 100
6.400000e-02, 100
6.500000e-02, 100
6.600000e-02, 100
6.700000e-02, 2660
6.800000e-02, 2660
6.900000e-02, 2660
7.000000e-02, 2660
7.100000e-02, 2660
7.200000e-02, 2660
7.300000e-02, 2660
7.400000e-02, 2660
7.500000e-02, 2660
7.600000e-02, 2660
7.700000e-02, 100
7.800000e-02, 100
7.900000e-02, 100
8.000000e-02, 100
8.100000e-02, 100
8.200000e-02, 100
8.300000e-02, 100
8.400000e-02, 100
8.500000e-02, 100
8.600000e-02, 100
8.700000e-02, 100
8.800000e-02, 100
8.900000e-02, 100
9.000000e-02, 100
9.100000e-02, 100
9.200000e-02, 100
9.300000e-02, 100
9.400000e-02, 100
9.500000e-02, 100
9.600000e-02, 100
9.700000e-02, 100
9.800000e-02, 100
9.900000e-02, 100
1.000000e-01, 100
1.010000e-01, 100
1.020000e-01, 100
1.030000e-01, 2660
1.040000e-01, 2660
1.050000e-01, 2660
1.060000e-01, 2660
1.070000e-01, 2660
1.080000e-01, 2660
1.090000e-01, 2660
1.100000e-01, 2660
1.110000e-01, 2660
1.120000e-01, 2660
1.130000e-01, 2660
1.140000e-01, 2660
1.150000e-01, 2660
1.160000e-01, 2660
1.170000e-01, 2660
1.180000e-01, 2660
1.190000e-01, 100
1.200000e-01, 100
1.210000e-01, 100
1.220000e-01, 100
1.230000e-01, 100
1.240000e-01, 100
1.250000e-01, 100
1.260000e-01, 100
1.270000e-01, 100
1.280000e-01, 100
1.290000e-01, 100
1.300000e-01, 100
1.310000e-01, 100
1.320000e-01, 100
1.330000e-01, 100
1.340000e-01, 100
1.350000e-01, 100
1.360000e-01, 100
1.370000e-01, 100
1.380000e-01, 100
1.390000e-01, 100
1.400000e-01, 100
1.410000e-01, 100
1.420000e-01, 100
1.430000e-01, 100
1.440000e-01, 100
1.450000e-01, 100
1.460000e-01, 100
1.470000e-01, 2660
1.480000e-01, 2660
1.490000e-01, 2660
1.500000e-01, 2660
1.510000e-01, 2660
1.520000e-01, 2660
1.530000e-01, 2660
1.540000e-01, 2660
1.550000e-01, 2660
1.560000e-01, 2660
1.570000e-01, 2660
1.580000e-01, 2660
1.590000e-01, 2660
1.600000e-01, 2660
1.610000e-01, 2660
1.620000e-01, 2660
1.630000e-01, 2660
1.640000e-01, 2660
1.650000e-01, 2660
1.660000e-01, 2660
1.670000e-01, 2660
1.680000e-01, 2660
1.690000e-01, 2660
1.700000e-01, 2660
1.710000e-01, 2660
1.720000e-01, 2660
1.730000e-01, 100
1.740000e-01, 100
1.750000e-01, 100
1.760000e-01, 100
1.770000e-01, 100
1.780000e-01, 100
1.790000e-01, 100
1.800000e-01, 100
1.810000e-01, 100
1.820000e-01, 100
1.830000e-01, 100
1.840000e-01, 100
1.850000e-01, 100
1.860000e-01, 100
1.870000e-01, 100
1.880000e-01, 100
1.890000e-01, 100
1.900000e-01, 100
1.910000e-01, 100
1.920000e-01, 100
1.930000e-01, 100
1.940000e-01, 100
1.950000e-01, 100
1.960000e-01, 100
1.970000e-01, 100
1.980000e-01, 100
1.990000e-01, 100
2.000000e-01, 100
2.010000e-01, 100
2.020000e-01, 100
2.030000e-01, 2660
2.040000e-01, 2660
2.050000e-01, 2660
2.060000e-01, 2660
2.070000e-01, 2660
2.080000e-01, 2660
2.090000e-01, 2660
2.100000e-01, 2660
2.110000e-01, 2660
2.120000e-01, 2660
2.130000e-01, 2660
2.140000e-01, 2660
2.150000e-01, 2660
2.160000e-01, 2660
2.170000e-01, 2660
2.180000e-01, 2660
2.190000e-01, 2660
2.200000e-01, 2660
2.210000e-01, 2660
2.220000e-01, 2660
2.230000e-01, 2660
2.240000e-01, 2660
2.250000e-01, 2660
2.260000e-01, 2660
2.270000e-01, 2660
2.280000e-01, 2660
2.290000e-01, 2660
2.300000e-01, 2660
2.310000e-01, 2660
2.320000e-01, 2660
2.330000e-01, 2660
2.340000e-01, 2660
2.350000e-01, 100
2.360000e-01, 100
2.370000e-01, 100
2.380000e-01, 100
2.390000e-01, 100
2.400000e-01, 100
2.410000e-01, 100
2.420000e-01, 100
2.430000e-01, 100
2.440000e-01, 100
2.450000e-01, 100
2.460000e-01, 100
2.470000e-01, 100
2.480000e-01, 100
2.490000e-01, 100
2.500000e-01, 100
2.510000e-01, 100
2.520000e-01, 100
2.530000e-01, 100
2.540000e-01, 100
2.550000e-01, 100
2.560000e-01, 100
2.570000e-01, 100
2.580000e-01, 100
2.590000e-01, 100
2.600000e-01, 100
2.610000e-01, 100
2.620000e-01, 100
2.630000e-01, 100
2.640000e-01, 100
2.650000e-01, 100
2.660000e-01, 100
2.670000e-01, 2660
2.680000e-01, 2660
2.690000e-01, 2660
2.700000e-01, 2660
2.710000e-01, 2660
2.720000e-01, 2660
2.730000e-01, 2660
2.740000e-01, 2660
2.750000e-01, 2660
2.760000e-01, 2660
2.770000e-01, 2660
2.780000e-01, 2660
2.790000e-01, 2660
2.800000e-01, 2660
2.810000e-01, 2660
2.820000e-01, 2660
2.830000e-01, 2660
2.840000e-01, 2660
2.850000e-01, 2660
2.860000e-01, 2660
2.870000e-01, 2660
2.880000e-01, 2660
2.890000e-01, 2660
2.900000e-01, 2660
2.910000e-01, 2660
2.920000e-01, 2660
2.930000e-01, 2660
2.940000e-01, 2660
2.950000e-01, 2660
2.960000e-01, 2660
2.970000e-01, 2660
2.980000e-01, 2660
2.990000e-01, 2660
3.000000e-01, 2660
3.010000e-01, 2660
3.020000e-01, 100
3.030000e-01, 100
3.040000e-01, 100
3.050000e-01, 100
3.060000e-01, 100
3.070000e-01, 100
3.080000e-01, 100
3.090000e-01, 100
3.100000e-01, 100
3.110000e-01, 100
3.120000e-01, 100
3.130000e-01, 100
3.140000e-01, 100
3.150000e-01, 100
3.160000e-01, 100
3.170000e-01, 100
3.180000e-01, 100
3.190000e-01, 100
3.200000e-01, 100
3.210000e-01, 100
3.220000e-01, 100
3.230000e-01, 100
3.240000e-01, 100
3.250000e-01, 100
3.260000e-01, 100
3.270000e-01, 100
3.280000e-01, 100
3.290000e-01, 100
3.300000e-01, 100
3.310000e-01, 100
3.320000e-01, 100
3.330000e-01, 100
3.340000e-01, 100
3.350000e-01, 100
3.360000e-01, 2660
3.370000e-01, 2660
3.380000e-01, 2660
3.390000e-01, 2660
3.400000e-01, 2660
3.410000e-01, 2660
3.420000e-01, 2660
3.430000e-01, 2660
3.440000e-01, 2660
3.450000e-01, 2660
3.460000e-01, 2660
3.470000e-01, 2660
3.480000e-01, 2660
3.490000e-01, 2660
3.500000e-01, 2660
3.510000e-01, 2660
3.520000e-01, 2660
3.530000e-01, 2660
3.540000e-01, 2660
3.550000e-01, 2660
3.560000e-01, 2660
3.570000e-01, 2660
3.580000e-01, 2660
3.590000e-01, 2660
3.600000e-01, 2660
3.610000e-01, 2660
3.620000e-01, 2660
3.630000e-01, 2660
3.640000e-01, 2660
3.650000e-01, 2660
3.660000e-01, 2660
3.670000e-01, 2660
3.680000e-01, 2660
3.690000e-01, 2660
3.700000e-01, 2660
3.710000e-01, 2660
3.720000e-01, 2660
3.730000e-01, 2660
3.740000e-01, 2660
3.750000e-01, 2660
3.760000e-01, 100
3.770000e-01, 100
3.780000e-01, 100
3.790000e-01, 100
3.800000e-01, 100
3.810000e-01, 100
3.820000e-01, 100
3.830000e-01, 100
3.840000e-01, 100
3.850000e-01, 100
3.860000e-01, 100
3.870000e-01, 100
3.880000e-01, 100
3.890000e-01, 100
3.900000e-01, 100
3.910000e-01, 100
3.920000e-01, 100
3.930000e-01, 100
3.940000e-01, 100
3.950000e-01, 100
3.960000e-01, 100
3.970000e-01, 100
3.980000e-01, 100
3.990000e-01, 100
4.000000e-01, 100
4.010000e-01, 100
4.020000e-01, 100
4.030000e-01, 100
4.040000e-01, 100
4.050000e-01, 100
4.060000e-01, 100
4.070000e-01, 100
4.080000e-01, 100
4.090000e-01, 100
4.100000e-01, 2660
4.110000e-01, 2660
4.120000e-01, 2660
4.130000e-01, 2660
4.140000e-01, 2660
4.150000e-01, 2660
4.160000e-01, 2660
4.170000e-01, 2660
4.180000e-01, 2660
4.190000e-01, 2660
4.200000e-01, 2660
4.210000e-01, 2660
4.220000e-01, 2660
4.230000e-01, 2660
4.240000e-01, 2660
4.250000e-01, 2660
4.260000e-01, 2660
4.270000e-01, 2660
4.280000e-01, 2660
4.290000e-01, 2660
4.300000e-01, 2660
4.310000e-01, 2660
4.320000e-01, 2660
4.330000e-01, 2660
4.340000e-01, 2660
4.350000e-01, 2660
4.360000e-01, 2660
4.370000e-01, 2660
4.380000e-01, 2660
4.390000e-01, 2660
4.400000e-01, 2660
4.410000e-01, 2660
4.420000e-01, 2660
4.430000e-01, 2660
4.440000e-01, 2660
4.450000e-01, 2660
4.460000e-01, 2660
4.470000e-01, 2660
4.480000e-01, 2660
4.490000e-01, 2660
4.500000e-01, 2660
4.510000e-01, 2660
4.520000e-01, 2660
4.530000e-01, 2660
4.540000e-01, 100
4.550000e-01, 100
4.560000e-01, 100
4.570000e-01, 100
4.580000e-01, 100
4.590000e-01, 100
4.600000e-01, 100
4.610000e-01, 100
4.620000e-01, 100
4.630000e-01, 100
4.640000e-01, 100
4.650000e-01, 100
4.660000e-01, 100
4.670000e-01, 100
4.680000e-01, 100
4.690000e-01, 100
4.700000e-01, 100
4.710000e-01, 100
4.720000e-01, 100
4.730000e-01, 100
4.740000e-01, 100
4.750000e-01, 100
4.760000e-01, 100
4.770000e-01, 100
4.780000e-01, 100
4.790000e-01, 100
4.800000e-01, 100
4.810000e-01, 100
4.820000e-01, 100
4.830000e-01, 100
4.840000e-01, 100
4.850000e-01, 100
4.860000e-01, 100
4.870000e-01, 100
4.880000e-01, 100
4.890000e-01, 2660
4.900000e-01, 2660
4.910000e-01, 2660
4.920000e-01, 2660
4.930000e-01, 2660
4.940000e-01, 2660
4.950000e-01, 2660
4.960000e-01, 2660
4.970000e-01, 2660
4.980000e-01, 2660
4.990000e-01, 2660
5.000000e-01, 2660
5.010000e-01, 2660
5.020000e-01, 2660
5.030000e-01, 2660
5.040000e-01, 2660
5.050000e-01, 2660
5.060000e-01, 2660
5.070000e-01, 2660
5.080000e-01, 2660
5.090000e-01, 2660
5.100000e-01, 2660
5.110000e-01, 2660
5.120000e-01, 2660
5.130000e-01, 2660
5.140000e-01, 2660
5.150000e-01, 2660
5.160000e-01, 2660
5.170000e-01, 2660
5.180000e-01, 2660
5.190000e-01, 2660
5.200000e-01, 2660
5.210000e-01, 2660
5.220000e-01, 2660
5.230000e-01, 2660
5.240000e-01, 2660
5.250000e-01, 2660
5.260000e-01, 2660
5.270000e-01, 2660
5.280000e-01, 2660
5.290000e-01, 2660
5.300000e-01, 2660
5.310000e-01, 2660
5.320000e-01, 2660
5.330000e-01, 2660
5.340000e-01, 2660
5.350000e-01, 2660
5.360000e-01, 100
5.370000e-01, 100
5.380000e-01, 100
5.390000e-01, 100
5.400000e-01, 100
5.410000e-01, 100
5.420000e-01, 100
5.430000e-01, 100
5.440000e-01, 100
5.450000e-01, 100
5.460000e-01, 100
5.470000e-01, 100
5.480000e-01, 100
5.490000e-01, 100
5.500000e-01, 100
5.510000e-01, 100
5.520000e-01, 100
5.530000e-01, 100
5.540000e-01, 100
5.550000e-01, 100
5.560000e-01, 100
5.570000e-01, 100
5.580000e-01, 100
5.590000e-01, 100
5.600000e-01, 100
5.610000e-01, 100
5.620000e-01, 100
5.630000e-01, 100
5.640000e-01, 100
5.650000e-01, 100
5.660000e-01, 100
5.670000e-01, 100
5.680000e-01, 100
5.690000e-01, 100
5.700000e-01, 100
5.710000e-01, 2660
5.720000e-01, 2660
5.730000e-01, 2660
5.740000e-01, 2660
5.750000e-01, 2660
5.760000e-01, 2660
5.770000e-01, 2660
5.780000e-01, 2660
5.790000e-01, 2660
5.800000e-01, 2660
5.810000e-01, 2660
5.820000e-01, 2660
5.830000e-01, 2660
5.840000e-01, 2660
5.850000e-01, 2660
5.860000e-01, 2660
5.870000e-01, 2660
5.880000e-01, 2660
5.890000e-01, 2660
5.900000e-01, 2660
5.910000e-01, 2660
5.920000e-01, 2660
5.930000e-01, 2660
5.940000e-01, 2660
5.950000e-01, 2660
5.960000e-01, 2660
5.970000e-01, 2660
5.980000e-01, 2660
5.990000e-01, 2660
6.000000e-01, 2660
6.010000e-01, 2660
6.020000e-01, 2660
6.030000e-01, 2660
6.040000e-01, 2660
6.050000e-01, 2660
6.060000e-01, 2660
6.070000e-01, 2660
6.080000e-01, 2660
6.090000e-01, 2660
6.100000e-01, 2660
6.110000e-01, 2660
6.120000e-01, 2660
6.130000e-01, 2660
6.140000e-01, 2660
6.150000e-01, 2660
6.160000e-01, 2660
6.170000e-01, 2660
6.180000e-01, 2660
6.190000e-01, 2660
6.200000e-01, 100
6.210000e-01, 100
6.220000e-01, 100
6.230000e-01, 100
6.240000e-01, 100
6.250000e-01, 100
6.260000e-01, 100
6.270000e-01, 100
6.280000e-01, 100
6.290000e-01, 100
6.300000e-01, 100
6.310000e-01, 100
6.320000e-01, 100
6.330000e-01, 100
6.340000e-01, 100
6.350000e-01, 100
6.360000e-01, 100
6.370000e-01, 100
6.380000e-01, 100
6.390000e-01, 100
6.400000e-01, 100
6.410000e-01, 100
6.420000e-01, 100
6.430000e-01, 100
6.440000e-01, 100
6.450000e-01, 100
6.460000e-01, 100
6.470000e-01, 100
6.480000e-01, 100
6.490000e-01, 100
6.500000e-01, 100
6.510000e-01, 100
6.520000e-01, 100
6.530000e-01, 100
6.540000e-01, 100
6.550000e-01, 2660
6.560000e-01, 2660
6.570000e-01, 2660
6.580000e-01, 2660
6.590000e-01, 2660
6.600000e-01, 2660
6.610000e-01, 2660
6.620000e-01, 2660
6.630000e-01, 2660
6.640000e-01, 2660
6.650000e-01, 2660
6.660000e-01, 2660
6.670000e-01, 2660
6.680000e-01, 2660
6.690000e-01, 2660
6.700000e-01, 2660
6.710000e-01, 2660
6.720000e-01, 2660
6.730000e-01, 2660
6.740000e-01, 2660
6.750000e-01, 2660
6.760000e-01, 2660
6.770000e-01, 2660
6.780000e-01, 2660
6.790000e-01, 2660
6.800000e-01, 2660
6.810000e-01, 2660
6.820000e-01, 2660
6.830000e-01, 2660
6.840000e-01, 2660
6.850000e-01, 2660
6.860000e-01, 2660
6.870000e-01, 2660
6.880000e-01, 2660
6.890000e-01, 2660
6.900000e-01, 2660
6.910000e-01, 2660
6.920000e-01, 2660
6.930000e-01, 2660
6.940000e-01, 2660
6.950000e-01, 2660
6.960000e-01, 2660
6.970000e-01, 2660
6.980000e-01, 2660
6.990000e-01, 2660
7.000000e-01, 2660
7.010000e-01, 2660
7.020000e-01, 2660
7.030000e-01, 2660
7.040000e-01, 2660
7.050000e-01, 2660
7.060000e-01, 2660
7.070000e-01, 2660
7.080000e-01, 2660
7.090000e-01, 2660
7.100000e-01, 2660
7.110000e-01, 2660
7.120000e-01, 2660
7.130000e-01, 2660
7.140000e-01, 2660
7.150000e-01, 2660
7.160000e-01, 2660
7.170000e-01, 2660
7.180000e-01, 2660
7.190000e-01, 2660
7.200000e-01, 2660
7.210000e-01, 2660
7.220000e-01, 2660
7.230000e-01, 2660
7.240000e-01, 2660
7.250000e-01, 2660
7.260000e-01, 2660
7.270000e-01, 2660
7.280000e-01, 2660
7.290000e-01, 2660
7.300000e-01, 100
7.310000e-01, 100
7.320000e-01, 100
7.330000e-01, 100
7.340000e-01, 100
7.350000e-01, 100
7.360000e-01, 100
7.370000e-01, 100
7.380000e-01, 100
7.390000e-01, 100
7.400000e-01, 100
7.410000e-01, 100
7.420000e-01, 100
7.430000e-01, 100
7.440000e-01, 100
7.450000e-01, 100
7.460000e-01, 100
7.470000e-01, 100
7.480000e-01, 100
7.490000e-01, 100
7.500000e-01, 100
7.510000e-01, 100
7.520000e-01, 100
7.530000e-01, 100
7.540000e-01, 100
7.550000e-01, 100
7.560000e-01, 100
7.570000e-01, 100
7.580000e-01, 100
7.590000e-01, 100
7.600000e-01, 100
7.610000e-01, 100
7.620000e-01, 100
7.630000e-01, 100
7.640000e-01, 100
7.650000e-01, 100
7.660000e-01, 100
7.670000e-01, 100
7.680000e-01, 100
7.690000e-01, 100
7.700000e-01, 100
7.710000e-01, 100
7.720000e-01, 100
7.730000e-01, 100
7.740000e-01, 100
7.750000e-01, 100
7.760000e-01, 100
7.770000e-01, 100
7.780000e-01, 100
7.790000e-01, 100
7.800000e-01, 100
7.810000e-01, 100
7.820000e-01, 100
7.830000e-01, 100
7.840000e-01, 100
7.850000e-01, 100
7.860000e-01, 100
7.870000e-01, 100
7.880000e-01, 100
7.890000e-01, 100
7.900000e-01, 2660
7.910000e-01, 2660
7.920000e-01, 2660
7.930000e-01, 2660
7.940000e-01, 2660
7.950000e-01, 2660
7.960000e-01, 2660
7.970000e-01, 2660
7.980000e-01, 2660
7.990000e-01, 2660
8.000000e-01, 2660
8.010000e-01, 2660
8.020000e-01, 2660
8.030000e-01, 2660
8.040000e-01, 2660
8.050000e-01, 100
8.060000e-01, 100
8.070000e-01, 100
8.080000e-01, 100
8.090000e-01, 100
8.100000e-01, 100
8.110000e-01, 100
8.120000e-01, 100
8.130000e-01, 100
8.140000e-01, 100
8.150000e-01, 100
8.160000e-01, 100
8.170000e-01, 100
8.180000e-01, 100
8.190000e-01, 100
8.200000e-01, 100
8.210000e-01, 100
8.220000e-01, 100
8.230000e-01, 100
8.240000e-01, 100
8.250000e-01, 100
8.260000e-01, 100
8.270000e-01, 100
8.280000e-01, 100
8.290000e-01, 100
8.300000e-01, 100
8.310000e-01, 100
8.320000e-01, 100
8.330000e-01, 100
8.340000e-01, 100
8.350000e-01, 100
8.360000e-01, 100
8.370000e-01, 100
8.380000e-01, 100
8.390000e-01, 100
8.400000e-01, 100
8.410000e-01, 100
8.420000e-01, 100
8.430000e-01, 100
8.440000e-01, 100
8.450000e-01, 100
8.460000e-01, 100
8.470000e-01, 100
8.480000e-01, 100
8.490000e-01, 100
8.500000e-01, 100
8.510000e-01, 100
8.520000e-01, 100
8.530000e-01, 100
8.540000e-01, 2660
8.550000e-01, 2660
8.560000e-01, 2660
8.570000e-01, 2660
8.580000e-01, 2660
8.590000e-01, 2660
8.600000e-01, 2660
8.610000e-01, 2660
8.620000e-01, 2660
8.630000e-01, 2660
8.640000e-01, 2660
8.650000e-01, 2660
8.660000e-01, 2660
8.670000e-01, 2660
8.680000e-01, 100
8.690000e-01, 100
8.700000e-01, 100
8.710000e-01, 100
8.720000e-01, 100
8.730000e-01, 100
8.740000e-01, 100
8.750000e-01, 100
8.760000e-01, 100
8.770000e-01, 100
8.780000e-01, 100
8.790000e-01, 100
8.800000e-01, 100
8.810000e-01, 100
8.820000e-01, 100
8.830000e-01, 100
8.840000e-01, 100
8.850000e-01, 100
8.860000e-01, 100
8.870000e-01, 100
8.880000e-01, 100
8.890000e-01, 100
8.900000e-01, 100
8.910000e-01, 100
8.920000e-01, 100
8.930000e-01, 100
8.940000e-01, 100
8.950000e-01, 100
8.960000e-01, 100
8.970000e-01, 100
8.980000e-01, 100
8.990000e-01, 100
9.000000e-01, 100
9.010000e-01, 100
9.020000e-01, 100
9.030000e-01, 100
9.040000e-01, 100
9.050000e-01, 100
9.060000e-01, 100
9.070000e-01, 100
9.080000e-01, 100
9.090000e-01, 100
9.100000e-01, 2660
9.110000e-01, 2660
9.120000e-01, 2660
9.130000e-01, 2660
9.140000e-01, 2660
9.150000e-01, 2660
9.160000e-01, 2660
9.170000e-01, 2660
9.180000e-01, 2660
9.190000e-01, 2660
9.200000e-01, 2660
9.210000e-01, 2660
9.220000e-01, 2660
9.230000e-01, 2660
9.240000e-01, 2660
9.250000e-01, 2660
9.260000e-01, 2660
9.270000e-01, 2660
9.280000e-01, 2660
9.290000e-01, 2660
9.300000e-01, 2660
9.310000e-01, 2660
9.320000e-01, 2660
9.330000e-01, 2660
9.340000e-01, 2660
9.350000e-01, 2660
9.360000e-01, 2660
9.370000e-01, 2660
9.380000e-01, 2660
9.390000e-01, 2660
9.400000e-01, 2660
9.410000e-01, 2660
9.420000e-01, 2660
9.430000e-01, 2660
9.440000e-01, 2660
9.450000e-01, 2660
9.460000e-01, 2660
9.470000e-01, 2660
9.480000e-01, 2660
9.490000e-01, 2660
9.500000e-01, 2660
9.510000e-01, 2660
9.520000e-01, 2660
9.530000e-01, 2660
9.540000e-01, 2660
9.550000e-01, 2660
9.560000e-01, 2660
9.570000e-01, 2660
9.580000e-01, 2660
9.590000e-01, 2660
9.600000e-01, 2660
9.610000e-01, 2660
9.620000e-01, 2660
9.630000e-01, 2660
9.640000e-01, 2660
9.650000e-01, 2660
9.660000e-01, 2660
9.670000e-01, 2660
9.680000e-01, 2660
9.690000e-01, 100
9.700000e-01, 100
9.710000e-01, 100
9.720000e-01, 100
9.730000e-01, 100
9.740000e-01, 100
9.750000e-01, 100
9.760000e-01, 100
9.770000e-01, 100
9.780000e-01, 100
9.790000e-01, 100
9.800000e-01, 100
9.810000e-01, 100
9.820000e-01, 100
9.830000e-01, 100
9.840000e-01, 100
9.850000e-01, 100
9.860000e-01, 100
9.870000e-01, 100
9.880000e-01, 100
9.890000e-01, 100
9.900000e-01, 100
9.910000e-01, 100
9.920000e-01, 100
9.930000e-01, 100
9.940000e-01, 100
9.950000e-01, 100
9.960000e-01, 100
9.970000e-01, 100
9.980000e-01, 100
9.990000e-01, 100
1.000000e+00, 100
1.001000e+00, 100
1.002000e+00, 100
1.003000e+00, 100
1.004000e+00, 100
1.005000e+00, 100
1.006000e+00, 100
1.007000e+00, 100
1.008000e+00, 100
1.009000e+00, 100
1.010000e+00, 100
1.011000e+00, 100
1.012000e+00, 100
1.013000e+00, 100
1.014000e+00, 100
1.015000e+00, 100
1.016000e+00, 100
1.017000e+00, 100
1.018000e+00, 100
1.019000e+00, 100
1.020000e+00, 100
1.021000e+00, 100
1.022000e+00, 100
1.023000e+00, 100
1.024000e+00, 100
1.025000e+00, 2660
1.026000e+00, 2660
1.027000e+00, 2660
1.028000e+00, 2660
1.029000e+00, 2660
1.030000e+00, 2660
1.031000e+00, 2660
1.032000e+00, 2660
1.033000e+00, 2660
1.034000e+00, 2660
1.035000e+00, 2660
1.036000e+00, 2660
1.037000e+00, 100
1.038000e+00, 100
1.039000e+00, 100
1.040000e+00, 100
1.041000e+00, 100
1.042000e+00, 100
1.043000e+00, 100
1.044000e+00, 100
1.045000e+00, 100
1.046000e+00, 100
1.047000e+00, 100
1.048000e+00, 100
1.049000e+00, 100
1.050000e+00, 100
1.051000e+00, 100
1.052000e+00, 100
1.053000e+00, 100
1.054000e+00, 100
1.055000e+00, 100
1.056000e+00, 100
1.057000e+00, 100
1.058000e+00, 100
1.059000e+00, 100
1.060000e+00, 100
1.061000e+00, 100
1.062000e+00, 100
1.063000e+00, 100
1.064000e+00, 100
1.065000e+00, 100
1.066000e+00, 100
1.067000e+00, 100
1.068000e+00, 100
1.069000e+00, 100
1.070000e+00, 100
1.071000e+00, 100
1.072000e+00, 100
1.073000e+00, 100
1.074000e+00, 100
1.075000e+00, 100
1.076000e+00, 100
1.077000e+00, 100
1.078000e+00, 100
1.079000e+00, 100
1.080000e+00, 100
1.081000e+00, 100
1.082000e+00, 100
1.083000e+00, 100
1.084000e+00, 100
1.085000e+00, 2660
1.086000e+00, 2660
1.087000e+00, 2660
1.088000e+00, 2660
1.089000e+00, 2660
1.090000e+00, 2660
1.091000e+00, 2660
1.092000e+00, 2660
1.093000e+00, 2660
1.094000e+00, 2660
1.095000e+00, 2660
1.096000e+00, 2660
1.097000e+00, 2660
1.098000e+00, 2660
1.099000e+00, 2660
1.100000e+00, 2660
1.101000e+00, 2660
1.102000e+00, 2660
1.103000e+00, 2660
1.104000e+00, 2660
1.105000e+00, 2660
1.106000e+00, 2660
1.107000e+00, 2660
1.108000e+00, 2660
1.109000e+00, 2660
1.110000e+00, 2660
1.111000e+00, 2660
1.112000e+00, 2660
1.113000e+00, 2660
1.114000e+00, 2660
1.115000e+00, 2660
1.116000e+00, 2660
1.117000e+00, 2660
1.118000e+00, 2660
1.119000e+00, 2660
1.120000e+00, 2660
1.121000e+00, 2660
1.122000e+00, 2660
1.123000e+00, 2660
1.124000e+00, 2660
1.125000e+00, 2660
1.126000e+00, 2660
1.127000e+00, 2660
1.128000e+00, 2660
1.129000e+00, 2660
1.130000e+00, 2660
1.131000e+00, 2660
1.132000e+00, 2660
1.133000e+00, 2660
1.134000e+00, 2660
1.135000e+00, 2660
1.136000e+00, 2660
1.137000e+00, 2660
1.138000e+00, 2660
1.139000e+00, 2660
1.140000e+00, 2660
1.141000e+00, 2660
1.142000e+00, 2660
1.143000e+00, 2660
1.144000e+00, 2660
1.145000e+00, 2660
1.146000e+00, 2660
1.147000e+00, 2660
1.148000e+00, 2660
1.149000e+00, 2660
1.150000e+00, 2660
1.151000e+00, 2660
1.152000e+00, 2660
1.153000e+00, 2660
1.154000e+00, 2660
1.155000e+00, 2660
1.156000e+00, 2660
1.157000e+00, 2660
1.158000e+00, 2660
1.159000e+00, 2660
1.160000e+00, 2660
1.161000e+00, 2660
1.162000e+00, 2660
1.163000e+00, 2660
1.164000e+00, 2660
1.165000e+00, 2660
1.166000e+00, 2660
1.167000e+00, 2660
1.168000e+00, 2660
1.169000e+00, 2660
1.170000e+00, 2660
1.171000e+00, 2660
1.172000e+00, 2660
1.173000e+00, 2660
1.174000e+00, 2660
1.175000e+00, 2660
1.176000e+00, 2660
1.177000e+00, 2660
1.178000e+00, 2660
1.179000e+00, 2660
1.180000e+00, 2660
1.181000e+00, 2660
1.182000e+00, 2660
1.183000e+00, 2660
1.184000e+00, 2660
1.185000e+00, 2660
1.186000e+00, 2660
1.187000e+00, 2660
1.188000e+00, 2660
1.189000e+00, 2660
1.190000e+00, 2660
1.191000e+00, 2660
1.192000e+00, 2660
1.193000e+00, 2660
1.194000e+00, 2660
1.195000e+00, 2660
1.196000e+00, 2660
1.197000e+00, 2660
1.198000e+00, 2660
1.199000e+00, 2660
1.200000e+00, 2660
1.201000e+00, 2660
1.202000e+00, 2660
1.203000e+00, 2660
1.204000e+00, 2660
1.205000e+00, 2660
1.206000e+00, 2660
1.207000e+00, 2660
1.208000e+00, 2660
1.209000e+00, 2660
1.210000e+00, 2660
1.211000e+00, 2660
1.212000e+00, 2660
1.213000e+00, 2660
1.214000e+00, 2660
1.215000e+00, 2660
1.216000e+00, 2660
1.217000e+00, 2660
1.218000e+00, 2660
1.219000e+00, 2660
1.220000e+00, 2660
1.221000e+00, 2660
1.222000e+00, 2660
1.223000e+00, 2660
1.224000e+00, 2660
1.225000e+00, 2660
1.226000e+00, 2660
1.227000e+00, 2660
1.228000e+00, 2660
1.229000e+00, 2660
1.230000e+00, 2660
1.231000e+00, 2660
1.232000e+00, 2660
1.233000e+00, 2660
1.234000e+00, 2660
1.235000e+00, 2660
1.236000e+00, 2660
1.237000e+00, 2660
1.238000e+00, 2660
1.239000e+00, 2660
1.240000e+00, 2660
1.241000e+00, 2660
1.242000e+00, 2660
1.243000e+00, 2660
1.244000e+00, 2660
1.245000e+00, 2660
1.246000e+00, 2660
1.247000e+00, 2660
1.248000e+00, 2660
1.249000e+00, 2660
1.250000e+00, 2660
1.251000e+00, 2660
1.252000e+00, 2660
1.253000e+00, 2660
1.254000e+00, 2660
1.255000e+00, 2660
1.256000e+00, 2660
1.257000e+00, 2660
1.258000e+00, 2660
1.259000e+00, 2660
1.260000e+00, 2660
1.261000e+00, 2660
1.262000e+00, 2660
1.263000e+00, 2660
1.264000e+00, 2660
1.265000e+00, 2660
1.266000e+00, 2660
1.267000e+00, 2660
1.268000e+00, 2660
1.269000e+00, 2660
1.270000e+00, 2660
1.271000e+00, 2660
1.272000e+00, 2660
1.273000e+00, 2660
1.274000e+00, 2660
1.275000e+00, 2660
1.276000e+00, 2660
1.277000e+00, 2660
1.278000e+00, 2660
1.279000e+00, 2660
